{
  "project_info": {
    "project_number": "820726447670",
    "firebase_url": "https://finaluri-acc30.firebaseio.com",
    "project_id": "finaluri-acc30",
    "storage_bucket": "finaluri-acc30.appspot.com"
  },
  "client": [
    {
      "client_info": {
        "mobilesdk_app_id": "1:820726447670:android:f0d41580c90b2c9d0da297",
        "android_client_info": {
          "package_name": "com.example.guess2"
        }
      },
      "oauth_client": [
        {
          "client_id": "820726447670-4t1rvfvjfqdjco46mlcpknf5es2vbe82.apps.googleusercontent.com",
          "client_type": 1,
          "android_info": {
            "package_name": "com.example.guess2",
            "certificate_hash": "6fd0f8982e1c8fa7abe4edc3a121716ef3a94989"
          }
        },
        {
          "client_id": "820726447670-v27hc9cgj9g6sd68gqj12oh4fh6fpndh.apps.googleusercontent.com",
          "client_type": 3
        }
      ],
      "api_key": [
        {
          "current_key": "AIzaSyAv1SD_qLUiMQLycdQwsLDPKfedzuUEG2o"
        }
      ],
      "services": {
        "appinvite_service": {
          "other_platform_oauth_client": [
            {
              "client_id": "820726447670-v27hc9cgj9g6sd68gqj12oh4fh6fpndh.apps.googleusercontent.com",
              "client_type": 3
            }
          ]
        }
      }
    }
  ],
  "configuration_version": "1"
}